{
    "RECORDS": [
        {
            "category_pesticide_id": "1",
            "language_id": "1",
            "name": "Thuốc Bảo vệ thực vật"
        },
        {
            "category_pesticide_id": "2",
            "language_id": "1",
            "name": "Thuốc Kích thích sinh trưởng"
        }
    ]
}