{
    "RECORDS": [
        {
            "farm_id": "1",
            "language_id": "3",
            "name": "GrnqIJdM8bqrtYaqObMu",
            "owner": "",
            "address": "gkU37oT9S2RcFMDCn1wz"
        },
        {
            "farm_id": "2",
            "language_id": "1",
            "name": "Tên nông trại khoitest",
            "owner": "Chủ nông trại khoitest",
            "address": "Địa chỉ nông trại khoitest"
        },
        {
            "farm_id": "3",
            "language_id": "1",
            "name": "Tomorrow Land",
            "owner": "Travis Scott",
            "address": "1437 Nguyễn Văn Linh"
        },
        {
            "farm_id": "4",
            "language_id": "1",
            "name": "Phước Sang",
            "owner": "Phước Sang",
            "address": "Đồng Nai"
        }
    ]
}