{
    "RECORDS": [
        {
            "method_water_id": "1",
            "language_id": "1",
            "name": "Xả tràn"
        },
        {
            "method_water_id": "2",
            "language_id": "1",
            "name": "Nhỏ giọt"
        },
        {
            "method_water_id": "3",
            "language_id": "1",
            "name": "Phun sương diện rộng"
        },
        {
            "method_water_id": "4",
            "language_id": "1",
            "name": "Phun sương cục bộ"
        }
    ]
}