{
    "RECORDS": [
        {
            "id": "1",
            "code": "KTST_ATN",
            "category_id": "2",
            "type_id": "2",
            "gtin": "GTIN_ATN",
            "unit_id": "10",
            "unit_display_id": "10",
            "unit_weight_id": "0",
            "gross_weight": "0",
            "net_weight": "0",
            "unit_volume_id": "0",
            "volume": "0",
            "unit_dimension_id": "0",
            "dimension": "0",
            "status": "1",
            "created_at": "2020-6-3 09:14:37",
            "updated_at": "2020-6-3 09:14:37",
            "created_by": "0xc1fe56E3F58D3244F606306611a5d10c8333f1f6",
            "created_tx": "0xc8fac2709a30527e382bd440b72a2384c533aa3d3c8d6dc8d4e27c56f3f7664b",
            "modified_by": "0xc1fe56E3F58D3244F606306611a5d10c8333f1f6",
            "modified_tx": "0xc8fac2709a30527e382bd440b72a2384c533aa3d3c8d6dc8d4e27c56f3f7664b",
            "fk_unit_id": "",
            "fk_unit_display_id": "10",
            "fk_unit_volume_id": "",
            "fk_unit_dimension_id": "",
            "fk_unit_weight_id": ""
        },
        {
            "id": "2",
            "code": "KTST_CC",
            "category_id": "2",
            "type_id": "2",
            "gtin": "GTIN_CC150",
            "unit_id": "10",
            "unit_display_id": "10",
            "unit_weight_id": "0",
            "gross_weight": "0",
            "net_weight": "0",
            "unit_volume_id": "10",
            "volume": "15",
            "unit_dimension_id": "8",
            "dimension": "0",
            "status": "1",
            "created_at": "2020-6-3 09:16:06",
            "updated_at": "2020-6-3 09:16:06",
            "created_by": "0xc1fe56E3F58D3244F606306611a5d10c8333f1f6",
            "created_tx": "0xc70d19c85c3812be872088a3d9df0059a3932598383ea2da9399551510e94321",
            "modified_by": "0xc1fe56E3F58D3244F606306611a5d10c8333f1f6",
            "modified_tx": "0xc70d19c85c3812be872088a3d9df0059a3932598383ea2da9399551510e94321",
            "fk_unit_id": "",
            "fk_unit_display_id": "10",
            "fk_unit_volume_id": "10",
            "fk_unit_dimension_id": "8",
            "fk_unit_weight_id": ""
        },
        {
            "id": "3",
            "code": "BVTV_A5SC",
            "category_id": "1",
            "type_id": "1",
            "gtin": "GTIN_A5SC",
            "unit_id": "10",
            "unit_display_id": "10",
            "unit_weight_id": "0",
            "gross_weight": "0",
            "net_weight": "0",
            "unit_volume_id": "10",
            "volume": "10",
            "unit_dimension_id": "8",
            "dimension": "0",
            "status": "1",
            "created_at": "2020-6-3 09:17:20",
            "updated_at": "2020-6-3 09:17:20",
            "created_by": "0xc1fe56E3F58D3244F606306611a5d10c8333f1f6",
            "created_tx": "0xadd5e222bd62f86868cda328e3dca2ac660b2faa70e406fb384172eb5622fa6f",
            "modified_by": "0xc1fe56E3F58D3244F606306611a5d10c8333f1f6",
            "modified_tx": "0xadd5e222bd62f86868cda328e3dca2ac660b2faa70e406fb384172eb5622fa6f",
            "fk_unit_id": "",
            "fk_unit_display_id": "10",
            "fk_unit_volume_id": "10",
            "fk_unit_dimension_id": "8",
            "fk_unit_weight_id": ""
        },
        {
            "id": "4",
            "code": "BVTV_ATC70",
            "category_id": "1",
            "type_id": "1",
            "gtin": "GTIN_A70",
            "unit_id": "7",
            "unit_display_id": "7",
            "unit_weight_id": "0",
            "gross_weight": "0",
            "net_weight": "0",
            "unit_volume_id": "11",
            "volume": "500",
            "unit_dimension_id": "11",
            "dimension": "0",
            "status": "1",
            "created_at": "2020-6-3 09:18:39",
            "updated_at": "2020-6-3 09:18:39",
            "created_by": "0xc1fe56E3F58D3244F606306611a5d10c8333f1f6",
            "created_tx": "0x8c777b5365598aec7584799e2363746e263b919d62d2577ac3e584280676b310",
            "modified_by": "0xc1fe56E3F58D3244F606306611a5d10c8333f1f6",
            "modified_tx": "0x8c777b5365598aec7584799e2363746e263b919d62d2577ac3e584280676b310",
            "fk_unit_id": "",
            "fk_unit_display_id": "7",
            "fk_unit_volume_id": "11",
            "fk_unit_dimension_id": "11",
            "fk_unit_weight_id": ""
        }
    ]
}